…
route\_level contains the service rate parameters since they vary by route and the walking parameters of interest are in global\_level . route\_level also contains a column called server\_imm which is the roster of when servers are available. observations contains all the data used for calculating MMD.

Simulate the passengers
=======================

``` r
passenger_df <- AirportSimulate1(global_level, flight_level_disembark, gate_level, nat_level, route_level)

passenger_df
#> # A tibble: 5,454 x 27
#> # Groups:   route [2]
#>    flight arrive  gate passengers  scale_dpl shape_dpl    ID
#>     <int>  <int> <int>      <int>         <dbl>     <dbl> <int>
#>  1      1    378     1        331          2.33      4.23     1
#>  2      1    378     1        331          2.33      4.23     2
#>  3      1    378     1        331          2.33      4.23     3
#>  4      1    378     1        331          2.33      4.23     4
#>  5      1    378     1        331          2.33      4.23     5
#>  6      1    378     1        331          2.33      4.23     6
#>  7      1    378     1        331          2.33      4.23     7
#>  8      1    378     1        331          2.33      4.23     8
#>  9      1    378     1        331          2.33      4.23     9
#> 10      1    378     1        331          2.33      4.23    10
#> # … with 5,444 more rows, and 19 more variables: distance_gate <int>,
#> #   nat <fct>, imm_sg <dbl>, imm_mg <dbl>, route <chr>, rate_imm <dbl>,
#> #   server_imm <list>, deplane <dbl>, arrive_ac <dbl>, walk_ac <dbl>,
#> #   arrive_imm <dbl>, service_imm <dbl>, depart_imm <dbl>,
#> #   system_dpl <dbl>, system_ac <dbl>, system_imm <dbl>,
#> #   system_total <dbl>, wait_imm <dbl>, start_imm <dbl>
```
…
